<svg width="37" height="37" viewBox="0 0 37 37" fill="none" xmlns="http://www.w3.org/2000/svg">
<circle cx="18.7391" cy="18.7297" r="18.0703" fill="white"/>
<g clip-path="url(#clip0)">
<path d="M22.7056 17.7871L15.5211 10.6224C15.2857 10.3878 14.9046 10.3882 14.6696 10.6236C14.4348 10.859 14.4354 11.2404 14.6708 11.4751L21.4277 18.2134L14.6706 24.9515C14.4352 25.1863 14.4346 25.5674 14.6693 25.8028C14.7871 25.9209 14.9415 25.9799 15.0958 25.9799C15.2497 25.9799 15.4035 25.9213 15.5211 25.8041L22.7056 18.6396C22.819 18.5268 22.8826 18.3733 22.8826 18.2134C22.8826 18.0534 22.8188 17.9001 22.7056 17.7871Z" fill="#FE9901"/>
</g>
<defs>
<clipPath id="clip0">
<rect width="15.5331" height="15.5331" fill="white" transform="translate(10.9219 10.4468)"/>
</clipPath>
</defs>
</svg>
