<svg width="22" height="20" viewBox="0 0 22 20" fill="none" xmlns="http://www.w3.org/2000/svg">
<path d="M15.9071 1C13.5225 1 11.946 2.26223 11.1639 3.09735C10.3819 2.26231 8.80535 1 6.42075 1C3.16702 1 1 3.93317 1 7.21897C1 9.67754 2.27887 14.4672 10.8436 18.9219C11.0436 19.026 11.2842 19.0261 11.4843 18.9219C20.049 14.4672 21.3279 9.67754 21.3279 7.21897C21.3279 3.85693 19.0967 1 15.9071 1ZM11.1639 17.5956C7.04996 15.4029 2.35518 11.7493 2.35518 7.21897C2.35518 4.69886 3.91626 2.31377 6.42075 2.31377C8.32081 2.31377 9.89285 3.44317 10.5885 4.50657C10.8537 4.92006 11.4764 4.91963 11.7405 4.5048C11.7545 4.4829 13.1674 2.31373 15.9071 2.31373C18.4303 2.31373 19.9727 4.72276 19.9727 7.21894C19.9727 11.7494 15.278 15.4028 11.1639 17.5956Z" fill="black" stroke="black" stroke-width="0.5"/>
</svg>
