<svg width="28" height="30" viewBox="0 0 28 30" fill="none" xmlns="http://www.w3.org/2000/svg">
<path d="M9.1825 16.4338C8.93875 16.6775 8.93875 17.0738 9.1825 17.3176C9.30502 17.4388 9.46498 17.5001 9.625 17.5001C9.78502 17.5001 9.94498 17.4388 10.0663 17.3176L13.8163 13.5676C13.8738 13.5101 13.92 13.4401 13.9513 13.3638C13.9688 13.3201 13.9712 13.2751 13.9787 13.2288C13.985 13.1938 14 13.1613 14 13.1251C14 13.0775 13.9825 13.0351 13.9725 12.9913C13.965 12.9575 13.965 12.9213 13.9513 12.8888C13.9187 12.8101 13.8713 12.74 13.8125 12.68L10.0663 8.93379C9.82252 8.69004 9.42625 8.69004 9.1825 8.93379C8.93875 9.17754 8.93875 9.57381 9.1825 9.81756L11.8638 12.5H0.87502C0.53002 12.5 0.25 12.7801 0.25 13.1251C0.25 13.4701 0.53002 13.7501 0.87502 13.7501H11.8663L9.1825 16.4338Z" fill="black"/>
<path d="M25.0513 0C24.955 0 24.8612 0.01875 24.7675 0.0287695C24.72 0.0175195 24.675 0 24.625 0H9.62498C7.9025 0 6.5 1.4025 6.5 3.12498V9.375C6.5 9.72 6.78002 10 7.12502 10C7.47002 10 7.75004 9.72 7.75004 9.375V3.12498C7.75004 2.09121 8.59127 1.24998 9.62504 1.24998H21.58L16.8863 3.26121C15.8925 3.68748 15.25 4.66119 15.25 5.74248V25H9.62504C8.72627 25 7.96256 24.3749 7.77629 24.1162L7.75004 16.8724C7.74881 16.5287 7.46879 16.2499 7.12502 16.2499C7.12502 16.2499 7.12379 16.2499 7.1225 16.2499C6.7775 16.2512 6.49877 16.5324 6.5 16.8774L6.52877 24.1611C6.50375 24.4349 6.63254 24.7211 6.92 25.0361C7.43123 25.5961 8.44625 26.2499 9.62498 26.2499H15.25V27.3011C15.25 28.7886 16.4612 29.9999 17.9488 29.9999C18.3175 29.9999 18.6763 29.9261 19.0112 29.7824L26.1137 26.7386C27.1075 26.3123 27.75 25.3386 27.75 24.2573V2.69877C27.75 1.21125 26.5388 0 25.0513 0ZM26.5 24.2575C26.5 24.8375 26.155 25.3612 25.6213 25.5888L18.5188 28.6325C18.3388 28.7112 18.1463 28.75 17.9488 28.75C17.15 28.75 16.5 28.1 16.5 27.3012V5.74248C16.5 5.16246 16.845 4.63875 17.3788 4.41123L24.4813 1.36752C24.6613 1.28877 24.8537 1.25004 25.0513 1.25004C25.85 1.25004 26.5 1.90002 26.5 2.69877V24.2575Z" fill="black"/>
<path d="M18.375 13.75C18.03 13.75 17.75 14.03 17.75 14.375V16.875C17.75 17.22 18.03 17.5 18.375 17.5C18.72 17.5 19 17.22 19 16.875V14.375C19 14.03 18.72 13.75 18.375 13.75Z" fill="black"/>
</svg>
