<svg width="55" height="55" viewBox="0 0 55 55" fill="none" xmlns="http://www.w3.org/2000/svg">
<path d="M54.7949 27.5C54.7949 27.5402 54.7949 27.5816 54.7937 27.6218H44.521C44.9325 26.841 45.1461 25.97 45.1437 25.0844C45.1425 22.1913 42.84 19.8426 39.9905 19.8292C37.1494 19.8292 34.8373 22.2108 34.8373 25.0966C34.8361 25.9773 35.0497 26.8459 35.46 27.6218H27.5893V19.5734C26.843 19.99 26.0031 20.2081 25.1513 20.2057C22.3053 20.2044 19.9993 17.8607 20.0005 14.9712C20.0017 12.0817 22.3101 9.74043 25.1561 9.74165C26.0067 9.73921 26.8442 9.95726 27.5893 10.3739V0.00121816C27.6289 0 27.6697 0 27.7093 0C42.6685 0 54.7949 12.312 54.7949 27.5Z" fill="#5BE7C3"/>
<path d="M54.7278 27.6219H54.7938C54.7302 42.7539 42.629 55.0001 27.7093 55.0001C27.6697 55.0001 27.6289 55.0001 27.5894 54.9989V44.541C30.091 45.9163 33.2177 44.9722 34.5734 42.4323C35.9292 39.8925 34.9982 36.7179 32.4966 35.3414C30.9656 34.4997 29.1203 34.4997 27.5906 35.3414V27.6219H35.4613C35.051 26.846 34.8374 25.9774 34.8386 25.0967C34.8386 22.2109 37.1506 19.8293 39.9918 19.8293C42.8413 19.8427 45.1438 22.1914 45.145 25.0845C45.1474 25.9701 44.9338 26.8411 44.5223 27.6219H54.7278Z" fill="#5ACEF2"/>
<path d="M35.2431 39.9411C35.2239 42.8501 32.8843 45.1926 30.0191 45.1731C29.1709 45.167 28.337 44.9502 27.5895 44.5409V54.9988C12.7251 54.9342 0.68859 42.7136 0.625 27.6218H10.869C10.4586 28.3734 10.2439 29.2188 10.2463 30.0776C10.2439 32.9671 12.5487 35.3121 15.3946 35.3145C18.2406 35.317 20.5502 32.9769 20.5526 30.0862C20.555 29.2237 20.3403 28.3759 19.9299 27.6218H27.5895V35.3413C30.1127 33.9599 33.261 34.9174 34.6216 37.4792C35.0235 38.2369 35.2371 39.0811 35.2431 39.9411Z" fill="#5BE7C3"/>
<path d="M27.5892 19.5742V27.6226H19.9297C20.34 28.3766 20.5548 29.2244 20.5524 30.0869C20.55 32.9764 18.2415 35.3165 15.3944 35.3153C12.5484 35.3128 10.2436 32.9691 10.2448 30.0784C10.2424 29.2196 10.4572 28.3742 10.8675 27.6226H0.624735C0.623535 27.5824 0.623535 27.5409 0.623535 27.5007C0.623535 12.3529 12.6852 0.0665157 27.5892 0.00195312V10.3746C26.8442 9.95799 26.0067 9.73994 25.156 9.74238C22.3101 9.74116 20.0016 12.0825 20.0005 14.9719C19.9993 17.8614 22.3053 20.2052 25.1512 20.2064C26.0031 20.2088 26.843 19.9908 27.5892 19.5742Z" fill="#5ACEF2"/>
</svg>
